{
    "prepare_queue": {
        "installed": [],
        "uninstalled": []
    },
    "config_munge": {
        "files": {}
    },
    "installed_plugins": {
        "cordova-plugin-console": {
            "PACKAGE_NAME": "com.ionicframework.babytracker824044"
        },
        "cordova-plugin-device": {
            "PACKAGE_NAME": "com.ionicframework.babytracker824044"
        },
        "cordova-plugin-splashscreen": {
            "PACKAGE_NAME": "com.ionicframework.babytracker824044"
        },
        "cordova-plugin-statusbar": {
            "PACKAGE_NAME": "com.ionicframework.babytracker824044"
        },
        "cordova-plugin-whitelist": {
            "PACKAGE_NAME": "com.ionicframework.babytracker824044"
        },
        "ionic-plugin-keyboard": {
            "PACKAGE_NAME": "com.ionicframework.babytracker824044"
        },
        "cordova-plugin-facebook4": {
            "APP_ID": "397938297224430",
            "APP_NAME": "BabyTracker",
            "PACKAGE_NAME": "com.ionicframework.babytracker824044"
        },
        "cordova-plugin-inappbrowser": {
            "PACKAGE_NAME": "com.ionicframework.babytracker824044"
        }
    },
    "dependent_plugins": {}
}